0.000000000000000000e+00 3.198897838592529297e+00
1.000000000000000000e+00 3.181202650070190430e+00
2.000000000000000000e+00 3.194375276565551758e+00
3.000000000000000000e+00 3.229188680648803711e+00
4.000000000000000000e+00 3.270043373107910156e+00
5.000000000000000000e+00 3.225781202316284180e+00
6.000000000000000000e+00 3.170132637023925781e+00
7.000000000000000000e+00 3.232630968093872070e+00
8.000000000000000000e+00 3.175215005874633789e+00
9.000000000000000000e+00 3.238102912902832031e+00
1.000000000000000000e+01 3.217170476913452148e+00
1.100000000000000000e+01 3.165695905685424805e+00
1.200000000000000000e+01 3.247066974639892578e+00
1.300000000000000000e+01 3.235685586929321289e+00
1.400000000000000000e+01 3.235940456390380859e+00
1.500000000000000000e+01 3.208306312561035156e+00
1.600000000000000000e+01 3.132319450378417969e+00
1.700000000000000000e+01 3.230558872222900391e+00
1.800000000000000000e+01 3.218274116516113281e+00
1.900000000000000000e+01 3.231338500976562500e+00
2.000000000000000000e+01 3.251231670379638672e+00
2.100000000000000000e+01 3.195129632949829102e+00
2.200000000000000000e+01 3.196140050888061523e+00
2.300000000000000000e+01 3.211876153945922852e+00
2.400000000000000000e+01 3.179599523544311523e+00
2.500000000000000000e+01 3.221403121948242188e+00
2.600000000000000000e+01 3.283881902694702148e+00
2.700000000000000000e+01 3.215212821960449219e+00
2.800000000000000000e+01 3.190359354019165039e+00
2.900000000000000000e+01 3.210119962692260742e+00
3.000000000000000000e+01 3.283351182937622070e+00
3.100000000000000000e+01 3.177373409271240234e+00
3.200000000000000000e+01 3.217406749725341797e+00
3.300000000000000000e+01 3.199846267700195312e+00
3.400000000000000000e+01 3.200655460357666016e+00
3.500000000000000000e+01 3.236176729202270508e+00
3.600000000000000000e+01 3.194372892379760742e+00
3.700000000000000000e+01 3.259986400604248047e+00
3.800000000000000000e+01 3.174743413925170898e+00
3.900000000000000000e+01 3.250052690505981445e+00
4.000000000000000000e+01 3.166033029556274414e+00
4.100000000000000000e+01 3.200950860977172852e+00
4.200000000000000000e+01 3.201185703277587891e+00
4.300000000000000000e+01 3.163065195083618164e+00
4.400000000000000000e+01 3.143975973129272461e+00
4.500000000000000000e+01 3.199643135070800781e+00
4.600000000000000000e+01 3.164899587631225586e+00
4.700000000000000000e+01 3.150897979736328125e+00
4.800000000000000000e+01 3.185184001922607422e+00
4.900000000000000000e+01 3.241450071334838867e+00
5.000000000000000000e+01 3.186155319213867188e+00
5.100000000000000000e+01 3.204440593719482422e+00
5.200000000000000000e+01 3.208098888397216797e+00
5.300000000000000000e+01 3.230846881866455078e+00
5.400000000000000000e+01 3.220609426498413086e+00
5.500000000000000000e+01 3.238356590270996094e+00
5.600000000000000000e+01 3.157496452331542969e+00
5.700000000000000000e+01 3.192561149597167969e+00
5.800000000000000000e+01 3.229938745498657227e+00
5.900000000000000000e+01 3.132146596908569336e+00
6.000000000000000000e+01 3.236297369003295898e+00
6.100000000000000000e+01 3.201753139495849609e+00
6.200000000000000000e+01 3.215554952621459961e+00
6.300000000000000000e+01 3.261601448059082031e+00
6.400000000000000000e+01 3.234631538391113281e+00
6.500000000000000000e+01 3.254621028900146484e+00
6.600000000000000000e+01 3.211358547210693359e+00
6.700000000000000000e+01 3.183357954025268555e+00
6.800000000000000000e+01 3.205062627792358398e+00
6.900000000000000000e+01 3.187525749206542969e+00
7.000000000000000000e+01 3.167309761047363281e+00
7.100000000000000000e+01 3.241257667541503906e+00
7.200000000000000000e+01 3.228560447692871094e+00
7.300000000000000000e+01 3.243488788604736328e+00
7.400000000000000000e+01 3.229634523391723633e+00
7.500000000000000000e+01 3.240973234176635742e+00
7.600000000000000000e+01 3.159281015396118164e+00
7.700000000000000000e+01 3.182196617126464844e+00
7.800000000000000000e+01 3.195774316787719727e+00
7.900000000000000000e+01 3.224646806716918945e+00
8.000000000000000000e+01 3.172047615051269531e+00
8.100000000000000000e+01 3.233925580978393555e+00
8.200000000000000000e+01 3.252779245376586914e+00
8.300000000000000000e+01 3.179367542266845703e+00
8.400000000000000000e+01 3.120317697525024414e+00
8.500000000000000000e+01 3.242926597595214844e+00
8.600000000000000000e+01 3.238197326660156250e+00
8.700000000000000000e+01 3.261974334716796875e+00
8.800000000000000000e+01 3.241896152496337891e+00
8.900000000000000000e+01 3.239802122116088867e+00
9.000000000000000000e+01 3.214096069335937500e+00
9.100000000000000000e+01 3.254727840423583984e+00
9.200000000000000000e+01 3.208024263381958008e+00
9.300000000000000000e+01 3.206090927124023438e+00
9.400000000000000000e+01 3.182005167007446289e+00
9.500000000000000000e+01 3.188692092895507812e+00
9.600000000000000000e+01 3.252322196960449219e+00
9.700000000000000000e+01 3.177506446838378906e+00
9.800000000000000000e+01 3.215067148208618164e+00
9.900000000000000000e+01 3.179127693176269531e+00
